{
  "annotations": {
    "list": [
      {
        "builtIn": 1,
        "datasource": "-- Grafana --",
        "enable": true,
        "hide": true,
        "iconColor": "rgba(0, 211, 255, 1)",
        "name": "Annotations & Alerts",
        "target": {
          "limit": 100,
          "matchAny": false,
          "tags": [],
          "type": "dashboard"
        },
        "type": "dashboard"
      }
    ]
  },
  "editable": true,
  "fiscalYearStartMonth": 0,
  "graphTooltip": 0,
  "id": 10,
  "iteration": 1656685180741,
  "links": [],
  "liveNow": false,
  "panels": [
    {
      "fieldConfig": {
        "defaults": {
          "color": {
            "mode": "palette-classic"
          },
          "custom": {
            "axisLabel": "GiB",
            "axisPlacement": "auto",
            "barAlignment": 0,
            "drawStyle": "line",
            "fillOpacity": 0,
            "gradientMode": "none",
            "hideFrom": {
              "legend": false,
              "tooltip": false,
              "viz": false
            },
            "lineInterpolation": "linear",
            "lineWidth": 1,
            "pointSize": 5,
            "scaleDistribution": {
              "type": "linear"
            },
            "showPoints": "auto",
            "spanNulls": false,
            "stacking": {
              "group": "A",
              "mode": "none"
            },
            "thresholdsStyle": {
              "mode": "off"
            }
          },
          "mappings": [],
          "thresholds": {
            "mode": "absolute",
            "steps": [
              {
                "color": "green",
                "value": null
              },
              {
                "color": "red",
                "value": 80
              }
            ]
          }
        },
        "overrides": []
      },
      "gridPos": {
        "h": 9,
        "w": 12,
        "x": 0,
        "y": 0
      },
      "id": 4,
      "options": {
        "legend": {
          "calcs": [],
          "displayMode": "list",
          "placement": "bottom"
        },
        "tooltip": {
          "mode": "single",
          "sort": "none"
        }
      },
      "targets": [
        {
          "datasource": {
            "type": "prometheus",
            "uid": "${datasource}"
          },
          "exemplar": true,
          "expr": "max(container_memory_working_set_bytes{container=\"jetstream\"})/1073741824 ",
          "interval": "",
          "legendFormat": "jetstream",
          "refId": "jetstream"
        },
        {
          "datasource": {
            "type": "prometheus",
            "uid": "${datasource}"
          },
          "exemplar": true,
          "expr": "max(container_memory_working_set_bytes{container=\"des\"})/1073741824 ",
          "hide": false,
          "interval": "",
          "legendFormat": "des",
          "refId": "des"
        },
        {
          "datasource": {
            "type": "prometheus",
            "uid": "${datasource}"
          },
          "exemplar": true,
          "expr": "max(container_memory_working_set_bytes{container=\"mos\"})/1073741824 ",
          "hide": false,
          "interval": "",
          "legendFormat": "mos",
          "refId": "mos"
        },
        {
          "datasource": {
            "type": "prometheus",
            "uid": "${datasource}"
          },
          "exemplar": true,
          "expr": "max(container_memory_working_set_bytes{container=\"eqfis\"})/1073741824 ",
          "hide": false,
          "interval": "",
          "legendFormat": "fis",
          "refId": "fis"
        }
      ],
      "title": "Max memory usage by pod",
      "type": "timeseries"
    },
    {
      "datasource": {
        "type": "loki",
        "uid": "loki"
      },
      "gridPos": {
        "h": 18,
        "w": 12,
        "x": 12,
        "y": 0
      },
      "id": 6,
      "options": {
        "dedupStrategy": "none",
        "enableLogDetails": true,
        "prettifyLogMessage": true,
        "showCommonLabels": false,
        "showLabels": false,
        "showTime": false,
        "sortOrder": "Descending",
        "wrapLogMessage": false
      },
      "targets": [
        {
          "datasource": {
            "type": "loki",
            "uid": "loki"
          },
          "expr": "{container=\"jetstream\"} | json | line_format \"{{.log}}\" ",
          "legendFormat": "jetstream",
          "refId": "jetstream"
        },
        {
          "datasource": {
            "type": "loki",
            "uid": "loki"
          },
          "expr": "{container=\"des\"}",
          "hide": false,
          "legendFormat": "des",
          "refId": "des"
        },
        {
          "datasource": {
            "type": "loki",
            "uid": "loki"
          },
          "expr": "{container=\"mos\"}",
          "hide": false,
          "legendFormat": "mos",
          "refId": "mos"
        },
        {
          "datasource": {
            "type": "loki",
            "uid": "loki"
          },
          "expr": "{container=\"eqfis\"}",
          "hide": false,
          "legendFormat": "fis",
          "refId": "fis"
        }
      ],
      "title": "Logs",
      "transformations": [
        {
          "id": "extractFields",
          "options": {
            "source": "line"
          }
        }
      ],
      "type": "logs"
    },
    {
      "fieldConfig": {
        "defaults": {
          "color": {
            "mode": "palette-classic"
          },
          "custom": {
            "axisLabel": "CPUs",
            "axisPlacement": "auto",
            "barAlignment": 0,
            "drawStyle": "line",
            "fillOpacity": 0,
            "gradientMode": "none",
            "hideFrom": {
              "legend": false,
              "tooltip": false,
              "viz": false
            },
            "lineInterpolation": "linear",
            "lineWidth": 1,
            "pointSize": 5,
            "scaleDistribution": {
              "type": "linear"
            },
            "showPoints": "auto",
            "spanNulls": false,
            "stacking": {
              "group": "A",
              "mode": "none"
            },
            "thresholdsStyle": {
              "mode": "off"
            }
          },
          "mappings": [],
          "thresholds": {
            "mode": "absolute",
            "steps": [
              {
                "color": "green",
                "value": null
              },
              {
                "color": "red",
                "value": 80
              }
            ]
          }
        },
        "overrides": []
      },
      "gridPos": {
        "h": 9,
        "w": 12,
        "x": 0,
        "y": 9
      },
      "id": 2,
      "options": {
        "legend": {
          "calcs": [],
          "displayMode": "list",
          "placement": "bottom"
        },
        "tooltip": {
          "mode": "single",
          "sort": "none"
        }
      },
      "targets": [
        {
          "datasource": {
            "type": "prometheus",
            "uid": "${datasource}"
          },
          "exemplar": true,
          "expr": "max(rate(container_cpu_usage_seconds_total{container=\"jetstream\"}[5m])) ",
          "interval": "",
          "legendFormat": "jetstream",
          "refId": "jetstream"
        },
        {
          "datasource": {
            "type": "prometheus",
            "uid": "${datasource}"
          },
          "exemplar": true,
          "expr": "max(rate(container_cpu_usage_seconds_total{container=\"des\"}[5m]))",
          "hide": false,
          "interval": "",
          "legendFormat": "des",
          "refId": "des"
        },
        {
          "datasource": {
            "type": "prometheus",
            "uid": "${datasource}"
          },
          "exemplar": true,
          "expr": "max(rate(container_cpu_usage_seconds_total{container=\"mos\"}[5m])) ",
          "hide": false,
          "interval": "",
          "legendFormat": "mos",
          "refId": "mos"
        },
        {
          "datasource": {
            "type": "prometheus",
            "uid": "${datasource}"
          },
          "exemplar": true,
          "expr": "max(rate(container_cpu_usage_seconds_total{container=\"eqfis\"}[5m])) ",
          "hide": false,
          "interval": "",
          "legendFormat": "fis",
          "refId": "fis"
        }
      ],
      "title": "Max CPU usage by pod",
      "type": "timeseries"
    }
  ],
  "refresh": "30s",
  "schemaVersion": 35,
  "style": "dark",
  "tags": [],
  "templating": {
    "list": [
      {
        "current": {
          "isNone": true,
          "selected": true,
          "text": "None",
          "value": ""
        },
        "datasource": {
          "type": "prometheus",
          "uid": "${datasource}"
        },
        "definition": "",
        "hide": 0,
        "includeAll": false,
        "multi": false,
        "name": "query0",
        "options": [],
        "query": {
          "query": "",
          "refId": "Prometheus-query0-Variable-Query"
        },
        "refresh": 1,
        "regex": "",
        "skipUrlSync": false,
        "sort": 0,
        "type": "query"
      }
    ]
  },
  "time": {
    "from": "now-1h",
    "to": "now"
  },
  "timepicker": {},
  "timezone": "",
  "title": "Jetstream Workflow Metrics",
  "uid": "TnwiExu7z",
  "version": 5,
  "weekStart": ""
}
