{
  "annotations": {
    "list": [
      {
        "builtIn": 1,
        "datasource": "-- Grafana --",
        "enable": true,
        "hide": true,
        "iconColor": "rgba(0, 211, 255, 1)",
        "name": "Annotations & Alerts",
        "target": {
          "limit": 100,
          "matchAny": false,
          "tags": [],
          "type": "dashboard"
        },
        "type": "dashboard"
      }
    ]
  },
  "description": "Displays logs associated with a particular container/application",
  "editable": true,
  "fiscalYearStartMonth": 0,
  "gnetId": 12611,
  "graphTooltip": 0,
  "id": 15,
  "iteration": 1657906612451,
  "links": [],
  "liveNow": false,
  "panels": [
    {
      "collapsed": false,
      "gridPos": {
        "h": 1,
        "w": 24,
        "x": 0,
        "y": 0
      },
      "id": 25,
      "panels": [],
      "title": "Live Logs",
      "type": "row"
    },
    {
      "datasource": {
        "type": "loki",
        "uid": "loki"
      },
      "description": "Live logs is a like 'tail -f' in a real time",
      "gridPos": {
        "h": 14,
        "w": 24,
        "x": 0,
        "y": 1
      },
      "id": 21,
      "options": {
        "dedupStrategy": "none",
        "enableLogDetails": true,
        "prettifyLogMessage": false,
        "showCommonLabels": false,
        "showLabels": true,
        "showTime": false,
        "sortOrder": "Descending",
        "wrapLogMessage": false
      },
      "targets": [
        {
          "datasource": {
            "type": "loki",
            "uid": "loki"
          },
          "expr": "{app=~\"$app\", namespace=~\"$namespace\"}",
          "hide": false,
          "refId": "A"
        }
      ],
      "title": "Live logs",
      "type": "logs"
    },
    {
      "datasource": {
        "type": "loki",
        "uid": "loki"
      },
      "description": "Total  Count of log lines in the specified time range",
      "fieldConfig": {
        "defaults": {
          "color": {
            "mode": "thresholds"
          },
          "mappings": [
            {
              "options": {
                "match": "null",
                "result": {
                  "color": "rgb(31, 255, 7)",
                  "text": "0"
                }
              },
              "type": "special"
            }
          ],
          "thresholds": {
            "mode": "percentage",
            "steps": [
              {
                "color": "rgb(31, 255, 7)",
                "value": null
              }
            ]
          },
          "unit": "short"
        },
        "overrides": []
      },
      "gridPos": {
        "h": 6,
        "w": 12,
        "x": 0,
        "y": 15
      },
      "id": 11,
      "links": [],
      "maxDataPoints": 100,
      "options": {
        "colorMode": "value",
        "graphMode": "area",
        "justifyMode": "center",
        "orientation": "horizontal",
        "reduceOptions": {
          "calcs": [
            "sum"
          ],
          "fields": "",
          "values": false
        },
        "text": {},
        "textMode": "auto"
      },
      "pluginVersion": "8.4.2",
      "targets": [
        {
          "datasource": {
            "type": "loki",
            "uid": "loki"
          },
          "expr": "sum(count_over_time(({app=~\"$app\"})[$__interval]))",
          "hide": false,
          "refId": "A"
        }
      ],
      "title": "Total  log Count",
      "type": "stat"
    },
    {
      "datasource": {
        "type": "loki",
        "uid": "loki"
      },
      "fieldConfig": {
        "defaults": {
          "color": {
            "mode": "thresholds"
          },
          "mappings": [],
          "thresholds": {
            "mode": "absolute",
            "steps": [
              {
                "color": "green",
                "value": null
              },
              {
                "color": "red",
                "value": 80
              }
            ]
          }
        },
        "overrides": []
      },
      "gridPos": {
        "h": 6,
        "w": 6,
        "x": 12,
        "y": 15
      },
      "id": 19,
      "links": [],
      "maxDataPoints": 100,
      "options": {
        "colorMode": "value",
        "graphMode": "area",
        "justifyMode": "center",
        "orientation": "auto",
        "reduceOptions": {
          "calcs": [
            "lastNotNull"
          ],
          "fields": "",
          "values": false
        },
        "textMode": "value"
      },
      "pluginVersion": "8.4.2",
      "targets": [
        {
          "datasource": {
            "type": "loki",
            "uid": "loki"
          },
          "expr": "sum(count_over_time(({app=~\"$app\"} | json | stream=\"stderr\")[$__interval]))",
          "hide": false,
          "refId": "A"
        }
      ],
      "title": "Total count of stderr",
      "type": "stat"
    },
    {
      "datasource": {
        "type": "loki",
        "uid": "loki"
      },
      "fieldConfig": {
        "defaults": {
          "color": {
            "mode": "palette-classic"
          },
          "custom": {
            "hideFrom": {
              "legend": false,
              "tooltip": false,
              "viz": false
            }
          },
          "mappings": []
        },
        "overrides": []
      },
      "gridPos": {
        "h": 6,
        "w": 6,
        "x": 18,
        "y": 15
      },
      "id": 27,
      "links": [],
      "maxDataPoints": 100,
      "options": {
        "displayLabels": [
          "percent"
        ],
        "legend": {
          "displayMode": "table",
          "placement": "right",
          "values": [
            "value"
          ]
        },
        "pieType": "pie",
        "reduceOptions": {
          "calcs": [
            "lastNotNull"
          ],
          "fields": "",
          "values": false
        },
        "tooltip": {
          "mode": "single",
          "sort": "none"
        }
      },
      "pluginVersion": "8.4.2",
      "targets": [
        {
          "datasource": {
            "type": "loki",
            "uid": "loki"
          },
          "expr": "sum(count_over_time(({app=~\"$app\"} | json | stream=\"stderr\")[$__interval])) by (app)",
          "hide": false,
          "legendFormat": "{{app}}",
          "refId": "A"
        }
      ],
      "title": "Total count of stderr",
      "type": "piechart"
    },
    {
      "aliasColors": {},
      "bars": false,
      "dashLength": 10,
      "dashes": false,
      "datasource": {
        "type": "loki",
        "uid": "loki"
      },
      "fieldConfig": {
        "defaults": {
          "links": [],
          "unit": "none"
        },
        "overrides": []
      },
      "fill": 2,
      "fillGradient": 4,
      "gridPos": {
        "h": 8,
        "w": 24,
        "x": 0,
        "y": 21
      },
      "hiddenSeries": false,
      "id": 7,
      "legend": {
        "alignAsTable": false,
        "avg": false,
        "current": false,
        "max": false,
        "min": false,
        "rightSide": false,
        "show": true,
        "total": false,
        "values": false
      },
      "lines": true,
      "linewidth": 1,
      "links": [],
      "maxDataPoints": 100,
      "nullPointMode": "null",
      "options": {
        "alertThreshold": true
      },
      "percentage": false,
      "pluginVersion": "8.4.2",
      "pointradius": 2,
      "points": false,
      "renderer": "flot",
      "seriesOverrides": [
        {
          "$$hashKey": "object:154",
          "alias": "{stream=\"stderr\"} stderr",
          "color": "#C4162A",
          "legend": false,
          "linewidth": 2
        },
        {
          "$$hashKey": "object:220",
          "alias": "{stream=\"stdout\"} stdout",
          "color": "#56A64B",
          "legend": false,
          "linewidth": 2
        }
      ],
      "spaceLength": 10,
      "stack": false,
      "steppedLine": false,
      "targets": [
        {
          "datasource": {
            "type": "loki",
            "uid": "loki"
          },
          "expr": "sum(count_over_time(({app=~\"$app\"} | json | stream=\"stderr\")[$__interval])) by (app)",
          "hide": false,
          "refId": "A"
        }
      ],
      "thresholds": [],
      "timeRegions": [],
      "title": "Error count",
      "tooltip": {
        "shared": true,
        "sort": 2,
        "value_type": "individual"
      },
      "type": "graph",
      "xaxis": {
        "mode": "time",
        "show": true,
        "values": []
      },
      "yaxes": [
        {
          "$$hashKey": "object:188",
          "format": "none",
          "logBase": 1,
          "show": true
        },
        {
          "$$hashKey": "object:189",
          "format": "short",
          "label": "",
          "logBase": 1,
          "show": true
        }
      ],
      "yaxis": {
        "align": false
      }
    },
    {
      "collapsed": false,
      "gridPos": {
        "h": 1,
        "w": 24,
        "x": 0,
        "y": 29
      },
      "id": 23,
      "panels": [],
      "title": "Search Logs",
      "type": "row"
    },
    {
      "datasource": {
        "type": "loki",
        "uid": "loki"
      },
      "description": "Live logs is a like 'tail -f' in a real time",
      "gridPos": {
        "h": 14,
        "w": 24,
        "x": 0,
        "y": 30
      },
      "id": 26,
      "options": {
        "dedupStrategy": "none",
        "enableLogDetails": true,
        "prettifyLogMessage": false,
        "showCommonLabels": false,
        "showLabels": true,
        "showTime": false,
        "sortOrder": "Descending",
        "wrapLogMessage": false
      },
      "targets": [
        {
          "datasource": {
            "type": "loki",
            "uid": "loki"
          },
          "expr": "{app=~\"$app\", namespace=~\"$namespace\"} |~ \"(?i)$searchable_pattern\"",
          "hide": false,
          "refId": "A"
        }
      ],
      "title": "Search logs",
      "type": "logs"
    },
    {
      "datasource": {
        "type": "loki",
        "uid": "loki"
      },
      "description": "Total Count: of $searchable_pattern in the specified time range",
      "fieldConfig": {
        "defaults": {
          "color": {
            "mode": "thresholds"
          },
          "mappings": [
            {
              "options": {
                "match": "null",
                "result": {
                  "color": "rgb(222, 15, 43)",
                  "text": "0"
                }
              },
              "type": "special"
            }
          ],
          "thresholds": {
            "mode": "absolute",
            "steps": [
              {
                "color": "rgb(222, 15, 43)",
                "value": null
              },
              {
                "color": "rgb(222, 15, 43)",
                "value": 10
              },
              {
                "color": "rgb(222, 15, 43)",
                "value": 50
              }
            ]
          },
          "unit": "short"
        },
        "overrides": []
      },
      "gridPos": {
        "h": 7,
        "w": 8,
        "x": 0,
        "y": 44
      },
      "id": 6,
      "links": [],
      "maxDataPoints": 100,
      "options": {
        "colorMode": "value",
        "graphMode": "area",
        "justifyMode": "auto",
        "orientation": "horizontal",
        "reduceOptions": {
          "calcs": [
            "sum"
          ],
          "fields": "",
          "values": false
        },
        "textMode": "auto"
      },
      "pluginVersion": "8.4.2",
      "targets": [
        {
          "datasource": {
            "type": "loki",
            "uid": "loki"
          },
          "expr": "sum(count_over_time(({app=~\"$app\"} |~ \"(?i)$searchable_pattern\")[$__interval]))",
          "hide": false,
          "refId": "A"
        }
      ],
      "title": "Total log count of search pattern",
      "type": "stat"
    },
    {
      "datasource": {
        "type": "loki",
        "uid": "loki"
      },
      "fieldConfig": {
        "defaults": {
          "color": {
            "mode": "palette-classic"
          },
          "custom": {
            "hideFrom": {
              "legend": false,
              "tooltip": false,
              "viz": false
            }
          },
          "mappings": []
        },
        "overrides": []
      },
      "gridPos": {
        "h": 7,
        "w": 8,
        "x": 8,
        "y": 44
      },
      "id": 20,
      "interval": "1m",
      "links": [],
      "maxDataPoints": "",
      "options": {
        "displayLabels": [
          "value"
        ],
        "legend": {
          "displayMode": "list",
          "placement": "bottom",
          "values": [
            "percent"
          ]
        },
        "pieType": "pie",
        "reduceOptions": {
          "calcs": [
            "lastNotNull"
          ],
          "fields": "",
          "values": false
        },
        "tooltip": {
          "mode": "single",
          "sort": "none"
        }
      },
      "pluginVersion": "6.4.3",
      "targets": [
        {
          "datasource": {
            "type": "loki",
            "uid": "loki"
          },
          "expr": "sum(count_over_time(({app=~\"$app\"} |~ \"(?i)$searchable_pattern\")[$__interval])) by (app)",
          "legendFormat": "",
          "refId": "A",
          "resolution": 1
        }
      ],
      "title": "Matched word: \"$searchable_pattern\"",
      "type": "piechart"
    },
    {
      "datasource": {
        "type": "loki",
        "uid": "loki"
      },
      "fieldConfig": {
        "defaults": {
          "mappings": [
            {
              "options": {
                "match": "null",
                "result": {
                  "color": "#299c46",
                  "text": "0"
                }
              },
              "type": "special"
            }
          ],
          "max": 100,
          "min": 0,
          "noValue": "0",
          "thresholds": {
            "mode": "absolute",
            "steps": [
              {
                "color": "#299c46",
                "value": null
              },
              {
                "color": "rgba(237, 129, 40, 0.89)",
                "value": 10
              },
              {
                "color": "#C4162A",
                "value": 50
              }
            ]
          },
          "unit": "percent"
        },
        "overrides": []
      },
      "gridPos": {
        "h": 7,
        "w": 8,
        "x": 16,
        "y": 44
      },
      "id": 9,
      "links": [],
      "maxDataPoints": 100,
      "options": {
        "orientation": "auto",
        "reduceOptions": {
          "calcs": [
            "mean"
          ],
          "fields": "",
          "values": false
        },
        "showThresholdLabels": false,
        "showThresholdMarkers": false
      },
      "pluginVersion": "8.4.2",
      "targets": [
        {
          "datasource": {
            "type": "loki",
            "uid": "loki"
          },
          "expr": "sum(count_over_time(({app=~\"$app\"} |~ \"(?i)$searchable_pattern\")[$__interval])) * 100 / sum(count_over_time(({app=~\"$app\"})[$__interval]))",
          "hide": false,
          "refId": "A"
        }
      ],
      "title": "Phase \"$searchable_pattern\" Occurrence",
      "type": "gauge"
    },
    {
      "aliasColors": {},
      "bars": true,
      "dashLength": 10,
      "dashes": false,
      "datasource": {
        "type": "loki",
        "uid": "loki"
      },
      "decimals": 0,
      "fieldConfig": {
        "defaults": {
          "links": []
        },
        "overrides": []
      },
      "fill": 1,
      "fillGradient": 1,
      "gridPos": {
        "h": 9,
        "w": 12,
        "x": 0,
        "y": 51
      },
      "hiddenSeries": false,
      "id": 18,
      "interval": "1m",
      "legend": {
        "alignAsTable": true,
        "avg": false,
        "current": true,
        "hideEmpty": false,
        "hideZero": false,
        "max": false,
        "min": false,
        "rightSide": false,
        "show": true,
        "sort": "current",
        "sortDesc": true,
        "total": false,
        "values": true
      },
      "lines": false,
      "linewidth": 3,
      "links": [],
      "maxDataPoints": "",
      "nullPointMode": "null",
      "options": {
        "alertThreshold": true
      },
      "percentage": false,
      "pluginVersion": "8.4.2",
      "pointradius": 2,
      "points": false,
      "renderer": "flot",
      "seriesOverrides": [],
      "spaceLength": 10,
      "stack": false,
      "steppedLine": false,
      "targets": [
        {
          "datasource": {
            "type": "loki",
            "uid": "loki"
          },
          "expr": "sum(count_over_time(({app=~\"$app\"} |~ \"(?i)$searchable_pattern\")[$__interval])) by (app)",
          "refId": "A"
        }
      ],
      "thresholds": [],
      "timeRegions": [],
      "title": "Matched word: \"$searchable_pattern\"",
      "tooltip": {
        "shared": true,
        "sort": 2,
        "value_type": "individual"
      },
      "type": "graph",
      "xaxis": {
        "mode": "time",
        "show": true,
        "values": []
      },
      "yaxes": [
        {
          "$$hashKey": "object:425",
          "decimals": 0,
          "format": "short",
          "label": "Count",
          "logBase": 1,
          "show": true
        },
        {
          "$$hashKey": "object:426",
          "format": "short",
          "logBase": 1,
          "show": false
        }
      ],
      "yaxis": {
        "align": false
      }
    },
    {
      "aliasColors": {},
      "bars": false,
      "dashLength": 10,
      "dashes": false,
      "datasource": {
        "type": "loki",
        "uid": "loki"
      },
      "fieldConfig": {
        "defaults": {
          "links": []
        },
        "overrides": []
      },
      "fill": 1,
      "fillGradient": 10,
      "gridPos": {
        "h": 9,
        "w": 12,
        "x": 12,
        "y": 51
      },
      "hiddenSeries": false,
      "id": 10,
      "legend": {
        "alignAsTable": true,
        "avg": false,
        "current": false,
        "max": false,
        "min": false,
        "rightSide": false,
        "show": true,
        "total": false,
        "values": false
      },
      "lines": true,
      "linewidth": 1,
      "links": [],
      "maxDataPoints": 100,
      "nullPointMode": "null",
      "options": {
        "alertThreshold": true
      },
      "percentage": false,
      "pluginVersion": "8.4.2",
      "pointradius": 0.5,
      "points": false,
      "renderer": "flot",
      "seriesOverrides": [],
      "spaceLength": 10,
      "stack": false,
      "steppedLine": false,
      "targets": [
        {
          "datasource": {
            "type": "loki",
            "uid": "loki"
          },
          "expr": "sum(rate(({app=~\"$app\"} |~ \"(?i)$searchable_pattern\")[$__interval])) by (app)",
          "hide": false,
          "refId": "A"
        }
      ],
      "thresholds": [],
      "timeRegions": [],
      "title": "\"$searchable_pattern\" Rate per Pod",
      "tooltip": {
        "shared": true,
        "sort": 2,
        "value_type": "individual"
      },
      "type": "graph",
      "xaxis": {
        "mode": "time",
        "show": true,
        "values": []
      },
      "yaxes": [
        {
          "$$hashKey": "object:2804",
          "format": "short",
          "logBase": 10,
          "show": true
        },
        {
          "$$hashKey": "object:2805",
          "format": "short",
          "logBase": 1,
          "show": true
        }
      ],
      "yaxis": {
        "align": false
      }
    }
  ],
  "refresh": false,
  "schemaVersion": 35,
  "style": "dark",
  "tags": [
    "Loki",
    "logging"
  ],
  "templating": {
    "list": [
      {
        "current": {
          "selected": false,
          "text": "404",
          "value": "404"
        },
        "hide": 0,
        "label": "Search (case insensitive)",
        "name": "searchable_pattern",
        "options": [
          {
            "selected": true,
            "text": "404",
            "value": "404"
          }
        ],
        "query": "404",
        "skipUrlSync": false,
        "type": "textbox"
      },
      {
        "current": {
          "selected": true,
          "text": [
            "monitoring"
          ],
          "value": [
            "monitoring"
          ]
        },
        "definition": "label_values(kube_pod_info, namespace)",
        "hide": 0,
        "includeAll": false,
        "multi": true,
        "name": "namespace",
        "options": [],
        "query": {
          "query": "label_values(kube_pod_info, namespace)",
          "refId": "StandardVariableQuery"
        },
        "refresh": 1,
        "regex": "",
        "skipUrlSync": false,
        "sort": 0,
        "type": "query"
      },
      {
        "current": {
          "selected": true,
          "text": [
            "grafana",
            "prometheus-adapter",
            "kube-state-metrics"
          ],
          "value": [
            "grafana",
            "prometheus-adapter",
            "kube-state-metrics"
          ]
        },
        "datasource": {
          "type": "loki",
          "uid": "loki"
        },
        "definition": "label_values({namespace=~\"$namespace\"},app)",
        "hide": 0,
        "includeAll": false,
        "multi": true,
        "name": "app",
        "options": [],
        "query": "label_values({namespace=~\"$namespace\"},app)",
        "refresh": 1,
        "regex": "",
        "skipUrlSync": false,
        "sort": 0,
        "type": "query"
      }
    ]
  },
  "time": {
    "from": "now-30m",
    "to": "now"
  },
  "timepicker": {
    "refresh_intervals": [
      "10s",
      "30s",
      "1m",
      "5m",
      "15m",
      "30m",
      "1h",
      "2h",
      "1d"
    ]
  },
  "timezone": "",
  "title": "Application Logs",
  "uid": "fRIvzUZMz",
  "version": 14,
  "weekStart": ""
}